…
``` r
# The first step consists of wrangling the dataset to put it in a long format
# and to mutate in factors the columns "cons" and "samp", and in numeric the column time
data <- tempR::bars
data.long <- data %>% gather( time, CATA, 5:455) %>% mutate(time = str_remove(time, "time_") %>% str_remove(., "s$"))
```

The dataset structure required consists of a long format, with one column containing the time units, one column indicating the different sensory parameters considered, one having all the 0 and 1 values, and as many columns as are the factors and interactions considered in the experimental design. A snippet of a valid data.frame structure is reported below.

> [!NOTE]
> For the correct functioning of the functions, it is necessary that the time column defined in `timecol` does not have any alphabet characters or symbols.

``` r
data.long
# A tibble: 649,440 × 6
# >   assessor session sample attribute           time   CATA
# >      <int>   <int>  <int> <fct>               <chr> <int>
# > 1        1       1      1 Caramelized Flavour 0.0       0
# > 2        1       1      1 Dried Fruit Flavour 0.0       0
# > 3        1       1      1 Grain Flavour       0.0       0
# > 4        1       1      1 Nutty Flavour       0.0       0
# > 5        1       1      1 Sweetness           0.0       0
# > 6        1       2      1 Caramelized Flavour 0.0       0
# > 7        1       2      1 Dried Fruit Flavour 0.0       0
# > 8        1       2      1 Grain Flavour       0.0       0
# > 9        1       2      1 Nutty Flavour       0.0       0
# >10        1       2      1 Sweetness           0.0       0
# ℹ 649,430 more rows
# ℹ Use `print(n = ...)` to see more rows
```
…
# The first step consists of wrangling the dataset to put it in a long format
# and to mutate in factors the columns "cons" and "samp", and in numeric the column time
data <- tempR::ojtcata
data.long <- data %>% gather(time, CATA, 5:25) %>%
mutate(cons = as.factor(cons), samp = as.factor(samp),
time = as.numeric(str_extract(time, "\\d+")))
```
The present case required some string manipulation in the column referred to time because initially there were multiple alphabet characters in the time column that interfered with the function.
Here is a snippet of a data.frame that has the right structure for the function:

``` r
data.long
# A tibble: 37,800 × 6
# >   cons  samp  samp_pos attribute       time  CATA
# >   <fct> <fct>    <int> <fct>          <dbl> <int>
# > 1 1     1            1 Astringent         0     0
# > 2 1     1            1 Bitterness         0     0
# > 3 1     1            1 Off Flavour        0     0
# > 4 1     1            1 Orange Flavour     0     0
# > 5 1     1            1 Sourness           0     0
# > 6 1     1            1 Sweetness          0     0
# > 7 1     2            3 Astringent         0     0
# > 8 1     2            3 Bitterness         0     0
# > 9 1     2            3 Off Flavour        0     0
# >10 1     2            3 Orange Flavour     0     0
# ℹ 37,790 more rows
# ℹ Use `print(n = ...)` to see more rows
```
…
